Those Poor Manatees
…
8M4

Force water effect to be positive and shade effect to be negative. Remember rlnorm can be used to force things to be positive (page 96).

data(tulips)  
dt <- tulips %>% 
  as_tibble() %>% 
  mutate(blooms_std = blooms / max(blooms), #-don't standardize if 0 is meaninful. Like with ruggedness, only scale it
         water_cent = water - mean(water),
         shade_cent = shade - mean(shade))

dt

## # A tibble: 27 x 7
##    bed   water shade blooms blooms_std water_cent shade_cent
##    <fct> <int> <int>  <dbl>      <dbl>      <dbl>      <dbl>
##  1 a         1     1    0        0             -1         -1
##  2 a         1     2    0        0             -1          0
##  3 a         1     3  111.       0.307         -1          1
##  4 a         2     1  183.       0.507          0         -1
##  5 a         2     2   59.2      0.164          0          0
##  6 a         2     3   76.8      0.212          0          1
##  7 a         3     1  225.       0.622          1         -1
##  8 a         3     2   83.8      0.232          1          0
##  9 a         3     3  135.       0.373          1          1
## 10 b         1     1   80.1      0.221         -1         -1
## # ... with 17 more rows
…
